﻿{
	"version": "0.1.0",
	"env": {
		"local": {
			"ENV_VARS": {
				"apiURL": "/api/v1/"
			}
		},
		"develop": {
			"ENV_VARS": {
				"apiURL": "http://agency.dev/api/v1/"
			}
		},
		"production": {
			"ENV_VARS": {
				"apiURL": "/api/v1/"
			}
		}
	}
}